{
  "address": "0xD8957E2B3E16032F1dc6650616f6281eaA87070d",
  "txs": [
    {
      "to": "0xE80724d5ac719AfaD690cF73d96418aB41168106",
      "amount": "100000000000000000",
      "hash": "0xbd3d0399ef169d661d3e53bd0c607b1feb72a57567ab735de3b418f376721eee",
      "timestamp": 1527247887
    },
    {
      "to": "0xE80724d5ac719AfaD690cF73d96418aB41168106",
      "amount": "200000000000000000",
      "hash": "0xb05f2d6fb75a9632cea7cc392e4497c087157d400526c938ab7de02615376822",
      "timestamp": 1527248261
    },
    {
      "to": "0x43e78214b41a056B4e2C57f1d6DDb88735987040",
      "amount": "100000000000000000",
      "hash": "0x02847e46cf9d4c6f277d7d53e00b1df9a3fd6dbf0d26fd5603990918a4908277",
      "timestamp": 1527252294
    },
    {
      "to": "0x43e78214b41a056B4e2C57f1d6DDb88735987040",
      "amount": "100000000000000000",
      "hash": "0x4efd570f29f3bdf9b9330edbe485d838befa27bb7bf10d77ca7fcaa3af7497e3",
      "timestamp": 1527252718
    },
    {
      "to": "0x43e78214b41a056B4e2C57f1d6DDb88735987040",
      "amount": "100000000000000000",
      "hash": "0x9c7469e6b469463f1ab1b3c1b95e80221938bebc42454ff0e92a6ad5b8c9be1b",
      "timestamp": 1527252865
    },
    {
      "to": "0xE80724d5ac719AfaD690cF73d96418aB41168106",
      "amount": "100000000000000000",
      "hash": "0xf045bfb24c1a7b738b5b96f03b2d286d0c67a2f4ecf558ed56f0dc33845ea36c",
      "timestamp": 1527253098
    },
    {
      "to": "0xE80724d5ac719AfaD690cF73d96418aB41168106",
      "amount": "110000000000000000",
      "hash": "0x80ccfca89bc8f43f093b814598ff990db969fab450f61893598e7f84a4e7c90a",
      "timestamp": 1527253271
    },
    {
      "to": "0xE80724d5ac719AfaD690cF73d96418aB41168106",
      "amount": "100000000000000000",
      "hash": "0xf29c0ef218f09a2588b843ed6d140d67e589119722a78e4ce54c45059a33bd43",
      "timestamp": 1527253429
    },
    {
      "to": "0xE80724d5ac719AfaD690cF73d96418aB41168106",
      "amount": "200000000000000000",
      "hash": "0xde2ddca2f0daa02ad1f7444991b41a4ddb0a1186775baf6f89dfde6973f995f7",
      "timestamp": 1527253576
    },
    {
      "to": "0x25AC05B5CfE7cD52Dd9412f2eF55eE28a9734601",
      "amount": "1000000000000000000",
      "hash": "0xaae2c817cf2c3b64b994a7cb5e915f9484a6164560ef17c5c1191312782d7224",
      "timestamp": 1527265407
    },
    {
      "to": "0x25AC05B5CfE7cD52Dd9412f2eF55eE28a9734601",
      "amount": "2000000000000000000",
      "hash": "0x9f0ef93c8301929a68d5e1969a50fcf2974cdc1d14064b8420b0a3a109057c17",
      "timestamp": 1527266794
    },
    {
      "to": "0xE80724d5ac719AfaD690cF73d96418aB41168106",
      "amount": "250000000000000000",
      "hash": "0x3d0cae31555b6d4430c9a1862cbfb4e05095913c836b490a3c3a867b6482d8f3",
      "timestamp": 1527268413
    },
    {
      "to": "0x43e78214b41a056B4e2C57f1d6DDb88735987040",
      "amount": "200000000000000000",
      "hash": "0xda91777f7f134526eb25465c1f71195f823a7a0c4c9c2301d39aff6e420fe5a2",
      "timestamp": 1527268570
    },
    {
      "to": "0x43e78214b41a056B4e2C57f1d6DDb88735987040",
      "amount": "100000000000000000",
      "hash": "0x990d93f25556b8a6405500fc538dc8c6e944a8923638f774fd52a966d6bae0d5",
      "timestamp": 1527268975
    },
    {
      "to": "0x25AC05B5CfE7cD52Dd9412f2eF55eE28a9734601",
      "amount": "1000000000000000000",
      "hash": "0xaea8016db7b974c9e59d017ef08c8d88dd87eac639845fddf9235eca432d6b6c",
      "timestamp": 1527323809
    },
    {
      "to": "0xCd6Ab0024d1f54bd964CD479EdaDec9614F2914a",
      "amount": "1000000000000000000",
      "hash": "0x9c27036e5ff74c409894fad227dd6cb14f9d8e8da5aae7bb1919898c633d5abc",
      "timestamp": 1527632756
    },
    {
      "to": "0xCd6Ab0024d1f54bd964CD479EdaDec9614F2914a",
      "amount": "1000000000000000000",
      "hash": "0x7414f3175619de3aabcf1d2d0e77202a9cbb48e5d6f175f647bea98089509f78",
      "timestamp": 1527632869
    },
    {
      "to": "0x43e78214b41a056B4e2C57f1d6DDb88735987040",
      "amount": "1000000000000000000",
      "hash": "0x370ffdc847f0a6cd105c45feca692d33b924cd9531d12edd34949853fc3b83c5",
      "timestamp": 1527632925
    }
  ]
}